{
  ".coveragerc": {
    "coverage": "HrZ4F9KZwYNbzvzVp+1lozl+xkwJKbHSOhBu5Egsp/iVUAo9ni1Pno8ATmXatzSpu5J+VgrodpqvhoZMCe4jpQ=="
  },
  ".gitattributes": {},
  ".gitignore": {
    "git": "fOegAH2YnnLFfnywFI6CYZorYiJo09UrnC2lAoePB5VZO2Ik8I4YrElXXzf9W12ywBq1tdOnptDbx5tJz5d8eQ=="
  },
  ".gitlab-ci.yml": {
    "glabbase.before": "71eK3GiwIpELtMkDyYpJSekqXNUXjwt0j+qWo9fh15j2fz2qtd8vuJj5tj/r3v4p2t09Et0ApU31D63FCgVtMQ==",
    "glabbase.image": "W6vyLsVpEFtBr33486EZJg/b3PlUbxuG3zwUdj8zlD9UUSMcuyKH2hltl82pXSf4Mi7tb5wulVxPOE1nk9E2TA==",
    "glabbase.stages": "b+jsaYyljn9N2c6bQ4tzUE0RvGXL3iTDDdguQH6728SPFkg0nwHuEX39ActAJoCub/LOgCcERW8UWKwQG073Aw==",
    "glabpkg_dev.before": "rILmikex8xWLgedmvj29xG5mnNn4ZSRbEZZ52xU1s8W+/+ECibP1PqAuVzQNDVkoBoPAcfiYeW86mQSxRJ2qCg==",
    "glabpkg_dev.pages": "qzs4u8xoHmS0hEuFETImgV1l2qmEsbp4DC60bTH0QSlvQwaRJssX5husJGWOgdscTKRvmbIaEmEiLCh6SVISFg==",
    "glabpkg_dev.stages": "ud0vGyEwLf57CU298RUcNP/gPK4W+M0luf63b9YhjYNRst/BV6toz2hrjQpl7mF/bqF27krAE5WlNNMDqSSEfw==",
    "glabpkg_dev.test": "9ZYwqi4Q9FNdDgf5ikoQHefNsRcXu7laui/Go4yAS+kv2JNB4ojKZJoFt2EJoGFxQNBTYpbHEChs7ZM/+XbCdw==",
    "glabpkg_dev.test_all": "D+MdxWjmMNGB1/o47BFpzoi87vwcUOEJ+Wn4WPEm39V4SrC1tClsibYCI/xkoW6ntsxwP7xOXrhWIrTi8WB7hw=="
  },
  ".gitlab/issue_templates/bug.md": {},
  ".gitlab/issue_templates/feature.md": {},
  ".gitlab/issue_templates/technical_task.md": {},
  ".pypirc": {
    "pypi.serverdescr": "d6B+Qvp4m8jn/exks3Rn+36F5CYJtuu7hnbIDZauGJVydBD8d2afBO1Pq0KNvhuDgx5x4tslaFISorNRxUqAXA==",
    "pypi.serverlist": "PC9SiM3/1x2vn66stkaGs8IZmA3C9zq9z6sBMLr74e3tdF5l0eBAZsagfMbQjPF+AW6evtXBtpEDMsF3dkjVHQ=="
  },
  "AUTHORS.rst": {
    "doc.authors": "/4DdVJ8b3rG94lfO9Lc7StWASvDQpuf73AL4vpQmxvi4N9ShPsMeP3Shwf6i2d3e4dvIUgDW1Mc0vUxg5LkbUw==",
    "doc.contributors": "J3DSW7KTgdo8oapZqBtZND/7nxY3IXay+rBR7ozFhOJKM047KgTFZPT/yFPdXFDnkAOisXboGHN5A1jNnTs++g=="
  },
  "CONTRIBUTING.rst": {},
  "HISTORY.rst": {},
  "LICENSE": {
    "license": "8T8OUqjlQha1L2WVIjMnlAuMC7QSOZ/Cft/ojnd+BkyKsbdSw6DAbXk1TlI6UvA8A23PQAb98UcVdMqO+ENkiw=="
  },
  "README.rst": {
    "doc": "9WCRY9AhL0Ttehq0zCIng8V2tkjyGpoP6fy+fCMp3JCtEaTU5PTbhtC3nU35KImBaEGc0Nwdsaplms5zez/7RQ==",
    "glabpkg_dev": "rKYn6NzMdFuIhHphFHScaRM5MoICkETXQvB99vQEnGUiXtuYdsQ3gePseOValWO9U89INQhV4OTEDY3TbhMPsA=="
  },
  "conda/meta.yaml": {
    "conda.about": "wkCd7hKHNAFeJFAE2T8BteKHoXfEQYZpIR/fwn0gffE1dlwXGwRgq0k8/yRbogRcVL/acxNbuSMOwnAneWS7fA==",
    "conda.package": "aWfNqmTi2ukitPb6KUqAmx5jXSQJX8TpyJrAA+JZIbzhKwVSwV88VwdZmcPXcUaVBVeeRcGGzTce7wgEOgshNw==",
    "conda.req_build": "enRIZWhj+6jSn0U+DCCmitbOR9RIJthnPVPP5hI3BGSiylxzEDT3k0FNzNearbPe/Pda1xgF6GXh7GMxYmGbUg==",
    "conda.req_run": "kZj+Tz3dZ9nEraDJEchF+DGYqew6acIDflLQRqZ4vZlCCyL0ZMghf+QSoUC8l7KspZiO8W/eMAY2KE8zIJ2jVA==",
    "conda.src": "Lzbp176AVU0YantZQxB4LsR2jbxpZ/OlkvY2V4aWAEuzKEarh872uc1eRvsIYf/FsbxvcmUI84AezWlA72nI6A=="
  },
  "conda/requirements.yml": {
    "conda": "Q/BRkTrykA3mUykDw3AnYlGf5FNFSxpwwPCfA+iZk9DmFo+gMJEVNDty33h5swqAHjdFrViSRR8OMWnwLbe6eg=="
  },
  "conda/requirements_minimal.yml": {
    "conda": "xkRa28Nug9JbTpsI+fVfIRfi7oO6uokRuyDvh35PKRNISasTkrBixhKRTcC9apsXVejI++RwJbiFO3pLF+5ZOg=="
  },
  "doc/Makefile": {
    "sphinx": "EsaaEppe6Kw79WHpUyBigedrIraP6YlQDBg9Fu6jue32Rt6mCQkk2zH7gfOVqjT5bNpnXN90UfLkrzHVJCo6UQ=="
  },
  "doc/_static/nonempty.txt": {},
  "doc/authors.rst": {},
  "doc/badges/badge_doc.svg": {
    "glabpkg_dev": "IM44vWrZFA6ZoJTo4BFQg+p2bnc/CmUsUhL4Tp3CXXcwBw+ujuJrNJbtl3Z1iVdmX7LNG5LljItsrVOKLY+pEw=="
  },
  "doc/badges/badge_pkging_conda.svg": {
    "glabpkg": "lA/Nn1YdMCN0lMG8t7a8bKlls0aVUGXZEZ2NBCnJk4iY3XWuDBdD4skHckG+QAQXZOSTZwpQQuQ8Yl/z7LMBaA=="
  },
  "doc/badges/badge_pkging_pip.svg": {
    "glabpkg": "20BDOWszcOddDxaZOCIF/IuuNVSEM18zKcPj3Kr96/UahmqqfP7DR+NkAF7NT9CWpyiZ2iPqLfyxDZ1AzsB8fw=="
  },
  "doc/badges/listing.rst": {
    "glabpkg": "rs4yROU5DdwnWeQyVLKpqta2/+p1We1P8r4RWx7R9DXwRf1ltUlXCnUZxlAjk8gchIfd+UpVNIfNaSKZkJp7Wg==",
    "glabpkg_dev": "w/qrxnIKJZGf1KrMHOj5M22uOD5GiS3a+LgxBtKm9PJa7IPl5nLlTBWqUq2Ywnsk76w+8OCCd4kgwQSCZtEroQ=="
  },
  "doc/biblio/biblio.rst": {},
  "doc/conf.py": {
    "sphinx": "basmo5tOej5po6Zk6/Wmm72pzINjP60t/UBjJdCr5P7LmJbO7F+w1B09Y4r+QgMaEcpLuS0O98L2K8TdTcg0xQ=="
  },
  "doc/contributing.rst": {},
  "doc/history.rst": {},
  "doc/index.rst": {},
  "doc/installation.rst": {
    "glabpkg": "qrkfk17fsAynnrN/0QbS9AUU6ckFJdHJboDP5PSCUssE/u8WvCZlza0GRsBNCkOG4/7Zud2+NWj/C3R6Dcm/Fg=="
  },
  "doc/make.bat": {
    "sphinx": "E9sFsnXAm9uPYBn7f0Qb6edct0UKizsXRIJyjZISRCjHbT2HldXK4GIj1yO69R/OVSfnmdAX5lzXQ4wONQNFgA=="
  },
  "doc/management.rst": {},
  "doc/readme.rst": {
    "glabpkg_dev": "3foey3aJnp+XHtCB4MfnGsPsHvVFATcCJo4d/Rac+3JxLktXXP+SRcBjRv2T4ja+SS3YuEsiawWTUvgJoDQWnw=="
  },
  "doc/usage.rst": {},
  "doc/user/index.rst": {},
  "doc/user/overview.rst": {},
  "example/readme.rst": {},
  "pyproject.toml": {
    "pyproject.build": "I2LGHHOpCXWlR8y2Sb2cY5UG39iTOOrVRVdA911ZyiSQt5YGkno3LbeRNL4DxPeE9zgYef1R8FDKDPB3U6f79g==",
    "pyproject.gui_scripts": "VNRlO4ElRuynet0DT31hGYve1t2FV1CooE7f9Bi+PIRMF5YmdymGAS4Q6k4woJdDJ3JILO7ozz/yv4RpujFdQQ==",
    "pyproject.project": "OTB70/F7/6/mSvs8NX8B3lex9TFiAP+uf5i/RNuqsO8gkxbl303sH6hUC6CzJWyN81DCI9cgxNM21zr3pGz6xA==",
    "pyproject.scripts": "nxzQt1CUNkpQiiU7Ajxf8abPXHZurGnQFv5j+v5nxAM9VwHmddCFUclVMs+nAk+DSBoFCOFU4k2hboyksj2e3Q==",
    "test": "mrthy97ntOhuSV5mMdwRWM8gaI6Q8Q1W7JVOMoeYO17j3rWjYDXVXeShXZraR7pR/wRa8lqQ0535Vq52HOIseQ=="
  },
  "requirements.txt": {
    "reqs": "JOdpMcgHKdIXDoCU7AKAd/a2Ji6gBslZlk9lbwhxsCR5X//b6NykrWDEHBOl3/GAIoWCyqtPw+RZe07dsjLU+w=="
  },
  "requirements_minimal.txt": {
    "reqs": "gKbHKDMbEnQAkHZkyLoiPVCCT0w6bqEQ2m5zk+cq/sdyooJgwO+jA6NRi+SQK6P6vuK88pjO84vtUmEbUdS73Q=="
  },
  "src/manparams/__init__.py": {
    "src": "L2dZgUBRC5qv3o09+1CbMcgYfQtR1ZNSvP8KlP8REQazZiAQAktALjpCC2ijdxvKPv/tN9KsZrzNW+lZMszSfg==",
    "version": "skSCnavrYKIlfN9Mpi+cANbU8gXulaKdlHryvkjkoSSpsag1I66dM+6JHm1aOdmKYU0rZNNgcIamCMbIL7IeMg=="
  },
  "src/manparams/version.py": {
    "version": "wHS0o8ZZdTKCqGWo+fQ3C2yTZORqghTaPY3Qwng2AZ1WlgqHflGKNLrlg8weLvo/YVPZtRrasykjx+xOUO0Zsw=="
  },
  "test/conftest.py": {
    "test.pytest_addoption": "I/hswVryIEYvZRBcFqkfRBxLP6eZCwZSbQuPclkOkjHw4MApBst5h7H0ejnMMe4bmwHXMXR5DCSxOMj/FcCnjQ==",
    "test.pytest_cmdline_preparse": "dhwAIKFEVr0pEZEMNbE3BxoV/057rJh7YXYBuU16TzD6JGu9TB+MAxFbuaZWCazx+LahuPZSJNQJVn9+ut338w==",
    "test.pytest_collection": "a/3h30sLUHJ7xWsOrmfCInOOVXvm660dS+RxHwcDUcae2jHqDLRGhq/v8zgC+FSzN3pXaEaJ1QBJ9MNLOUBuCA==",
    "test.pytest_configure": "SjyTXdrRadJNWhVFYkAvXekjOqNtovwqKNizWD35oZ9XVmsdB/B+lQDzXNPZQ0D5flFpSEURUiGqIvifgEKZ9Q==",
    "test.pytest_import": "2ox6A0szNpUYZR5cJJRSW3OwEWR558BOiUMjC/OVkTPT++CF/OCgGSELCPL+7YHWaJGQKMw2rtCXmOMeSK5ZJA=="
  },
  "test/test_packaging.py": {}
}